{
    "request": {
      "method": "GET",
      "urlPath": "/api/todos"
    },
    "response": {
      "status": 200,
      "bodyFileName": "todos.json",
      "headers": {
        "Content-Type": "application/json"
      }
    }
}
